EESchema Schematic File Version 4
EELAYER 30 0
EELAYER END
$Descr A4 11693 8268
encoding utf-8
Sheet 1 1
Title ""
Date ""
Rev ""
Comp ""
Comment1 ""
Comment2 ""
Comment3 ""
Comment4 ""
$EndDescr
$Comp
L power:VBUS #PWR0101
U 1 1 5F0E5AF3
P 7100 3150
F 0 "#PWR0101" H 7100 3000 50  0001 C CNN
F 1 "VBUS" V 7115 3278 50  0000 L CNN
F 2 "" H 7100 3150 50  0001 C CNN
F 3 "" H 7100 3150 50  0001 C CNN
	1    7100 3150
	0    1    -1   0   
$EndComp
Wire Wire Line
	7100 3350 7300 3350
Wire Wire Line
	7100 3450 7300 3450
Text Label 7300 3350 2    50   ~ 0
CC1
Text Label 7300 3450 2    50   ~ 0
CC2
Wire Wire Line
	7100 3650 7100 3750
Wire Wire Line
	7100 3650 7300 3650
Connection ~ 7100 3650
Wire Wire Line
	7100 3850 7100 3950
Wire Wire Line
	7100 3850 7300 3850
Connection ~ 7100 3850
Text Label 7300 3650 2    50   ~ 0
D-
Text Label 7300 3850 2    50   ~ 0
D+
$Comp
L power:GND #PWR0102
U 1 1 5F0E7063
P 6500 4650
F 0 "#PWR0102" H 6500 4400 50  0001 C CNN
F 1 "GND" H 6505 4477 50  0000 C CNN
F 2 "" H 6500 4650 50  0001 C CNN
F 3 "" H 6500 4650 50  0001 C CNN
	1    6500 4650
	1    0    0    -1  
$EndComp
$Comp
L power:Earth #PWR0103
U 1 1 5F0E74E1
P 6200 4650
F 0 "#PWR0103" H 6200 4400 50  0001 C CNN
F 1 "Earth" H 6200 4500 50  0001 C CNN
F 2 "" H 6200 4650 50  0001 C CNN
F 3 "~" H 6200 4650 50  0001 C CNN
	1    6200 4650
	1    0    0    -1  
$EndComp
$Comp
L power:GND #PWR0104
U 1 1 5F0E7B59
P 3500 3600
F 0 "#PWR0104" H 3500 3350 50  0001 C CNN
F 1 "GND" H 3505 3427 50  0000 C CNN
F 2 "" H 3500 3600 50  0001 C CNN
F 3 "" H 3500 3600 50  0001 C CNN
	1    3500 3600
	1    0    0    -1  
$EndComp
$Comp
L 0xdec:USB_A_C_Receptacle_USB2.0 J1
U 2 1 5F0E3F79
P 6500 3750
F 0 "J1" H 6607 4617 50  0000 C CNN
F 1 "USB_A_C" H 6607 4526 50  0000 C CNN
F 2 "0xdec:USB_A_C_Receptacle_AdamTech_USB-C31-A-D-VT-CS1" H 8200 5200 50  0001 C CNN
F 3 "http://www.adam-tech.com/upload/USB-C31-A-D-VT-CS1.pdf" H 8200 5200 50  0001 C CNN
	2    6500 3750
	1    0    0    -1  
$EndComp
$Comp
L 0xdec:USB_A_C_Receptacle_USB2.0 J1
U 1 1 5F0E31C8
P 3500 3200
F 0 "J1" H 3557 3667 50  0000 C CNN
F 1 "USB_A_C" H 3557 3576 50  0000 C CNN
F 2 "0xdec:USB_A_C_Receptacle_AdamTech_USB-C31-A-D-VT-CS1" H 5200 4650 50  0001 C CNN
F 3 "http://www.adam-tech.com/upload/USB-C31-A-D-VT-CS1.pdf" H 5200 4650 50  0001 C CNN
	1    3500 3200
	1    0    0    -1  
$EndComp
Text Label 4100 3300 2    50   ~ 0
DM1
Text Label 4100 3200 2    50   ~ 0
DP1
Wire Wire Line
	3800 3000 4100 3000
Text Label 4100 3000 2    50   ~ 0
VBUS1
Wire Wire Line
	3800 3300 4100 3300
Wire Wire Line
	3800 3200 4100 3200
$Comp
L 0xdec:TPS2549 U2
U 1 1 5F22ECDF
P 4900 4050
F 0 "U2" H 4900 4717 50  0000 C CNN
F 1 "TPS2549" H 4900 4626 50  0000 C CNN
F 2 "Package_DFN_QFN:QFN-16-1EP_3x3mm_P0.5mm_EP1.7x1.7mm" H 4900 4050 50  0001 C CNN
F 3 "https://www.ti.com/lit/ds/symlink/tps2549.pdf" H 4700 4350 50  0001 C CNN
	1    4900 4050
	1    0    0    -1  
$EndComp
$Comp
L 0xdec:LMR14030xDPR U1
U 1 1 5F22FD45
P 4200 2100
F 0 "U1" H 4200 2681 50  0000 C CNN
F 1 "LMR14030xDPR" H 4200 2590 50  0000 C CNN
F 2 "Package_SON:Texas_S-PWSON-N10" H 4200 2100 50  0001 C CNN
F 3 "https://www.ti.com/lit/ds/symlink/lmr14030-q1.pdf" H 4200 2100 50  0001 C CNN
	1    4200 2100
	1    0    0    -1  
$EndComp
$EndSCHEMATC
